{"type":"FeatureCollection", "features": [
{"type":"Feature","geometry":{"type":"Polygon","coordinates":[[[95.32493893559149,5.560874946751767],[95.32498226465736,5.560885263195984],[95.32503451082738,5.560895279301234],[95.32499083071684,5.561070271048038],[95.32489048570261,5.5610475123850165],[95.32493893559149,5.560874946751767]]]},"properties":{"Id":2,"Pem_Hak":"M. Yudan (Alm)","No_Telp":"0651-34081","Status_Tan":"HM","Lokasi":"Jl. Besi No. 1","Luas":220.285015253,"Jenis_Tana":"Perumahan","Patok":"Ada","No_PBB":"11.16.005.015.00-0038.8","Status_PBB":"Lunas_2021","Bts_Utara":"Mukhlis","Bts_Selata":"Jalan","Bts_Barat":"Hj. Umi Kalsum","Bts_Timur":"Taufik","Kls_Tanah":"-","Papan_Nama":"-","Mutasi":"","R_P_O":"Jual Beli","Kron_Mslh":"-","Bukti_Hak":"Sertifikat","Kron_Seles":"-","N_I_K":"1171022801680002"}},
{"type":"Feature","geometry":{"type":"Polygon","coordinates":[[[95.32493893559149,5.560874946751767],[95.32489048570261,5.5610475123850165],[95.32479050030912,5.561024835285479],[95.32481322774737,5.5609412281189625],[95.32483835485573,5.560850998957619],[95.32493893559149,5.560874946751767]]]},"properties":{"Id":1,"Pem_Hak":"Hj. Umi Kalsum","No_Telp":"0651-34102","Status_Tan":"HM","Lokasi":"Jl. Letnan No. 8","Luas":227.070825093,"Jenis_Tana":"Perumahan","Patok":"Ada","No_PBB":"11.16.005.015.00-0041.6","Status_PBB":"Lunas_2021","Bts_Utara":"Mukhlis","Bts_Selata":"Jalan","Bts_Barat":"Jalan","Bts_Timur":"M. Yudan (Alm)","Kls_Tanah":"-","Papan_Nama":"-","Mutasi":"","R_P_O":"Jual Beli","Kron_Mslh":"-","Bukti_Hak":"Sertifikat","Kron_Seles":"-","N_I_K":"1171027103240001"}},
{"type":"Feature","geometry":{"type":"Polygon","coordinates":[[[95.3251145517278,5.560913228787373],[95.32506995021976,5.561086472252509],[95.32499083071684,5.5610702710480435],[95.32503451082738,5.560895279301249],[95.32509248129122,5.560906392809807],[95.3251145517278,5.560913228787373]]]},"properties":{"Id":3,"Pem_Hak":"Ridhwan","No_Telp":"-","Status_Tan":"HM","Lokasi":"Jl. Besi No. 3","Luas":323.40661729,"Jenis_Tana":"Perumahan","Patok":"Ada","No_PBB":"11.16.005.015.00-0041.8","Status_PBB":"Belum 2019","Bts_Utara":"Mukhlis","Bts_Selata":"Jalan","Bts_Barat":"M. Yudan (Alm)","Bts_Timur":"Rahmadi","Kls_Tanah":"-","Papan_Nama":"-","Mutasi":"","R_P_O":"Jual Beli","Kron_Mslh":"-","Bukti_Hak":"Sertifikat","Kron_Seles":"-","N_I_K":"1171022003620002"}},
{"type":"Feature","geometry":{"type":"Polygon","coordinates":[[[95.32535040058724,5.560985516164237],[95.3253126528179,5.5611331887560596],[95.32524109571347,5.561115820526879],[95.3252813474129,5.560964309001804],[95.32530149314579,5.560970352721597],[95.32535040058724,5.560985516164237]]]},"properties":{"Id":7,"Pem_Hak":"Rusli","No_Telp":"-","Status_Tan":"HM","Lokasi":"Jl. Besi No. 7B","Luas":138.256290648,"Jenis_Tana":"Perumahan","Patok":"Ada","No_PBB":"11.16.005.015.00-0052.7","Status_PBB":"Lunas_2021","Bts_Utara":"Yunus","Bts_Selata":"Jalan","Bts_Barat":"Asrama IPELMAS","Bts_Timur":"Sujono","Kls_Tanah":"-","Papan_Nama":"-","Mutasi":"","R_P_O":"Jual Beli","Kron_Mslh":"-","Bukti_Hak":"Sertifikat","Kron_Seles":"-","N_I_K":"1171020036610002"}},
{"type":"Feature","geometry":{"type":"Polygon","coordinates":[[[95.3253126528179,5.5611331887560596],[95.32535040058724,5.560985516164237],[95.3254322683228,5.561010898737209],[95.32540533791041,5.561156861571931],[95.3253126528179,5.5611331887560596]]]},"properties":{"Id":8,"Pem_Hak":"Sujono","No_Telp":"0651-77654","Status_Tan":"HM","Lokasi":"Jl. Besi No. 7C","Luas":166.861901425,"Jenis_Tana":"Perumahan","Patok":"Ada","No_PBB":"11.16.005.015.00-0036.2","Status_PBB":"Belum 2019","Bts_Utara":"Amiril/Yunus","Bts_Selata":"Jalan","Bts_Barat":"Rusli","Bts_Timur":"Jalan","Kls_Tanah":"-","Papan_Nama":"-","Mutasi":"","R_P_O":"Jual Beli","Kron_Mslh":"-","Bukti_Hak":"Sertifikat","Kron_Seles":"-","N_I_K":"1171020070775002"}},
{"type":"Feature","geometry":{"type":"Polygon","coordinates":[[[95.32533367901146,5.561138559082622],[95.32540533791041,5.561156861571931],[95.32540371479064,5.561165658880952],[95.32538601160076,5.5612389843512915],[95.32536088449257,5.561317221029185],[95.3252912416068,5.561299726198001],[95.32533367901146,5.561138559082622]]]},"properties":{"Id":9,"Pem_Hak":"Amiril","No_Telp":"-","Status_Tan":"HM","Lokasi":"Jl. Perdamaian no. 16","Luas":152.426580765,"Jenis_Tana":"Perumahan","Patok":"Ada","No_PBB":"11.16.005.015.00-0042.9","Status_PBB":"Lunas_2021","Bts_Utara":"Jalan","Bts_Selata":"Sujono","Bts_Barat":"Yunus","Bts_Timur":"Jalan","Kls_Tanah":"-","Papan_Nama":"-","Mutasi":"","R_P_O":"Jual Beli","Kron_Mslh":"-","Bukti_Hak":"Sertifikat","Kron_Seles":"-","N_I_K":"1171020011272020"}},
{"type":"Feature","geometry":{"type":"Polygon","coordinates":[[[95.32533367901146,5.561138559082622],[95.3252912416068,5.561299726198001],[95.32524267286982,5.561287525355908],[95.32519512072986,5.56127848651937],[95.32522889579047,5.56116174228805],[95.32524109571347,5.561115820526879],[95.3253126528179,5.5611331887560596],[95.32533367901146,5.561138559082622]]]},"properties":{"Id":10,"Pem_Hak":"Yunus","No_Telp":"0651-77942","Status_Tan":"HM","Lokasi":"Jl. Perdamaian no. 14","Luas":197.738696274,"Jenis_Tana":"Perumahan","Patok":"Ada","No_PBB":"11.16.005.015.00-0013.1","Status_PBB":"Lunas_2021","Bts_Utara":"Jalan","Bts_Selata":"Rusli","Bts_Barat":"Asrama IPELMAS","Bts_Timur":"Amiril","Kls_Tanah":"-","Papan_Nama":"-","Mutasi":"","R_P_O":"Jual Beli","Kron_Mslh":"-","Bukti_Hak":"Sertifikat","Kron_Seles":"-","N_I_K":"1171020210764020"}},
{"type":"Feature","geometry":{"type":"Polygon","coordinates":[[[95.32513514502688,5.561100637729454],[95.325177952697,5.560932866254177],[95.32522154325608,5.560946367754696],[95.3252813474129,5.560964309001803],[95.32522889579047,5.561161742288051],[95.32519512072986,5.561278486519369],[95.32511133539685,5.561262560381636],[95.32512324772188,5.561207903831586],[95.3251089709558,5.5612050484784845],[95.32513514502688,5.561100637729454]]]},"properties":{"Id":6,"Pem_Hak":"Pemerintah Kabupaten Simeulue","No_Telp":"-","Status_Tan":"HP","Lokasi":"Jl. Perdamaian No. 10","Luas":418.624279223,"Jenis_Tana":"Asrama","Patok":"Ada","No_PBB":"-","Status_PBB":"Belum 2020","Bts_Utara":"Jalan","Bts_Selata":"Jalan","Bts_Barat":"Mukhlis/M. Amin","Bts_Timur":"Rusli/Yunus","Kls_Tanah":"","Papan_Nama":"Ada","Mutasi":"","R_P_O":"","Kron_Mslh":"","Bukti_Hak":"Sertifikat","Kron_Seles":"","N_I_K":"-"}},
{"type":"Feature","geometry":{"type":"Polygon","coordinates":[[[95.32511133539685,5.561262560381636],[95.32503537422707,5.561248121481639],[95.32499619381917,5.561241216122483],[95.3250301942989,5.561078331479847],[95.32510659149472,5.561093975238634],[95.32513514502688,5.561100637729454],[95.3251089709558,5.5612050484784845],[95.32512324772188,5.561207903831586],[95.32511133539685,5.561262560381636]]]},"properties":{"Id":11,"Pem_Hak":"Muhammad Amin","No_Telp":"-","Status_Tan":"HM","Lokasi":"Jl. Perdamaian No. 8","Luas":221.278435514,"Jenis_Tana":"Perumahan","Patok":"Ada","No_PBB":"11.16.005.015.00-0023.3","Status_PBB":"Belum 2019","Bts_Utara":"Muhammad Amin","Bts_Selata":"Jalan","Bts_Barat":"Ridhwan","Bts_Timur":"Saifan","Kls_Tanah":"-","Papan_Nama":"-","Mutasi":"","R_P_O":"Jual Beli","Kron_Mslh":"-","Bukti_Hak":"Sertifikat","Kron_Seles":"-","N_I_K":"1171022109650201"}},
{"type":"Feature","geometry":{"type":"Polygon","coordinates":[[[95.32499083071684,5.561070271048038],[95.3250301942989,5.561078331479848],[95.32499619381917,5.5612412161224825],[95.32488632478953,5.561221852232109],[95.3247915270631,5.561204720112869],[95.32474698355304,5.561196725123864],[95.3247783924383,5.561069376370824],[95.32479050030912,5.56102483528548],[95.32499083071684,5.561070271048038]]]},"properties":{"Id":12,"Pem_Hak":"Mukhlis","No_Telp":"-","Status_Tan":"HM","Lokasi":"Jl. Perdamaian No. 6","Luas":525.228274534,"Jenis_Tana":"Perumahan","Patok":"Ada","No_PBB":"11.16.005.015.00-0013.1","Status_PBB":"Lunas_2021","Bts_Utara":"Jalan","Bts_Selata":"Umi Kalsum/M Yudan","Bts_Barat":"Jalan","Bts_Timur":"Muhammad Amin","Kls_Tanah":"-","Papan_Nama":"-","Mutasi":"","R_P_O":"Jual Beli","Kron_Mslh":"-","Bukti_Hak":"Sertifikat","Kron_Seles":"-","N_I_K":"1171020212480003"}},
{"type":"Feature","geometry":{"type":"Polygon","coordinates":[[[95.32514652658408,5.560923132504296],[95.325177952697,5.560932866254214],[95.32513514502688,5.561100637729462],[95.32510659149472,5.561093975238651],[95.32510290322001,5.5610932199955485],[95.32514652658408,5.560923132504296]]]},"properties":{"Id":5,"Pem_Hak":"Saifan","No_Telp":"-","Status_Tan":"HM","Lokasi":"Jl. Besi No. 5B","Luas":323.40661729,"Jenis_Tana":"Perumahan","Patok":"Ada","No_PBB":"11.16.005.020.00-0023.5","Status_PBB":"Belum 2019","Bts_Utara":"Muhammad Amin","Bts_Selata":"Jalan","Bts_Barat":"Suja'i","Bts_Timur":"IPPELMAS","Kls_Tanah":"-","Papan_Nama":"-","Mutasi":"","R_P_O":"Jual Beli","Kron_Mslh":"-","Bukti_Hak":"Sertifikat","Kron_Seles":"-","N_I_K":"1171020046680002"}},
{"type":"Feature","geometry":{"type":"Polygon","coordinates":[[[95.32514652658408,5.560923132504296],[95.32510290322001,5.5610932199955485],[95.32506995021976,5.561086472252509],[95.3251145517278,5.560913228787373],[95.32514652658408,5.560923132504296]]]},"properties":{"Id":4,"Pem_Hak":"Suja'i","No_Telp":"-","Status_Tan":"HM","Lokasi":"Jl. Besi No. 5A","Luas":323.40661729,"Jenis_Tana":"Perumahan","Patok":"Ada","No_PBB":"11.16.005.018.00-0041.6","Status_PBB":"Lunas_2021","Bts_Utara":"Muhammad Amin","Bts_Selata":"Jalan","Bts_Barat":"Ridhwan","Bts_Timur":"Saifan","Kls_Tanah":"-","Papan_Nama":"-","Mutasi":"","R_P_O":"Jual Beli","Kron_Mslh":"-","Bukti_Hak":"Sertifikat","Kron_Seles":"-","N_I_K":"1171022003620004"}}
]}